STA 9750 – Software Tools for Data AnalysisSTA 9750Michael WeylandtWeek 7 – Thursday 2026-03-19Last Updated: 2026-03-16
…
Global Temperature Anomaly

CDIAC estimates of global temperature

Global Mean Temperature Anomaly (difference from baseline)

This is the “2°” reference of the 2015 Paris Climate Accords

cdiac data in CVXR package or via my GitHub:

cdiac <- read_csv("https://michael-weylandt.com/STA9750/cdiac.csv")
cdiac

# A tibble: 166 × 14
    year    jan    feb    mar    apr    may    jun    jul    aug    sep    oct
   <dbl>  <dbl>  <dbl>  <dbl>  <dbl>  <dbl>  <dbl>  <dbl>  <dbl>  <dbl>  <dbl>
 1  1850 -0.702 -0.284 -0.732 -0.57  -0.325 -0.213 -0.128 -0.233 -0.444 -0.452
 2  1851 -0.303 -0.362 -0.485 -0.445 -0.302 -0.189 -0.215 -0.153 -0.108 -0.063
 3  1852 -0.308 -0.477 -0.505 -0.559 -0.209 -0.038 -0.016 -0.195 -0.125 -0.216
 4  1853 -0.177 -0.33  -0.318 -0.352 -0.268 -0.179 -0.059 -0.148 -0.409 -0.359
 5  1854 -0.36  -0.28  -0.284 -0.349 -0.23  -0.215 -0.228 -0.163 -0.115 -0.188
 6  1855 -0.176 -0.4   -0.303 -0.217 -0.336 -0.16  -0.268 -0.159 -0.339 -0.211
 7  1856 -0.119 -0.373 -0.513 -0.371 -0.119 -0.288 -0.297 -0.305 -0.459 -0.384
 8  1857 -0.512 -0.344 -0.434 -0.646 -0.567 -0.31  -0.544 -0.327 -0.393 -0.467
 9  1858 -0.532 -0.707 -0.55  -0.517 -0.651 -0.58  -0.324 -0.28  -0.339 -0.2  
10  1859 -0.307 -0.192 -0.334 -0.203 -0.31  -0.25  -0.285 -0.104 -0.575 -0.255
# ℹ 156 more rows
# ℹ 3 more variables: nov <dbl>, dec <dbl>, annual <dbl>
…
