STA 9750 – Software Tools for Data AnalysisSTA 9750Michael WeylandtWeek 6 – Thursday 2026-03-12Last Updated: 2026-03-09
…
[1] 5725

Legos of Data Analysis

Q: How many distinct flights left NYC in 2013?

💡 Did airlines re-use flight numbers for different destinations?

flights |>
    distinct(carrier, flight, dest) |>
    # Find reuse of number across different destinations
    # Shorthand for group_by + summarize(n = n())
    count(carrier, flight) 

# A tibble: 5,725 × 3
   carrier flight     n
   <chr>    <int> <int>
 1 9E        2900     1
 2 9E        2901     1
 3 9E        2902     1
 4 9E        2903     2
 5 9E        2904     2
 6 9E        2905     1
 7 9E        2906     1
 8 9E        2907     1
 9 9E        2908     1
10 9E        2909     2
# ℹ 5,715 more rows
…
