STA 9750 – Software Tools for Data AnalysisSTA 9750Michael WeylandtWeek 5 – Thursday 2026-03-05Last Updated: 2026-03-05
…
Untidy! ❌

Mixing two pieces of information (Enrollments and Caps)

Tip: When one unit spans multiple rows, likely untidy

Some Untidy Examples

A different structure:

# A tibble: 6 × 3
  Semester Course     Enrollment
  <chr>    <chr>           <dbl>
1 Fall     Accounting        200
2 Fall     Law               100
3 Fall     Statistics        200
# ℹ 3 more rows

and

# A tibble: 6 × 3
  Semester Course       Cap
  <chr>    <chr>      <dbl>
1 Fall     Accounting   250
2 Fall     Law          125
3 Fall     Statistics   200
# ℹ 3 more rows
…
