STA 9750 – STA 9750 Week 4 Update 2025-02-20
…
Dropping is mainly useful for

Presentation (removing unwanted columns)

Advanced:

Operations across columns

FAQ: filter vs group_by

group_by is an adverb. On its own, it does nothing; it changes the behavior of later functionality.

penguins |> drop_na() |> print(n=2)

# A tibble: 333 × 8
  species island    bill_length_mm bill_depth_mm flipper_length_mm body_mass_g
  <fct>   <fct>              <dbl>         <dbl>             <int>       <int>
1 Adelie  Torgersen           39.1          18.7               181        3750
2 Adelie  Torgersen           39.5          17.4               186        3800
# ℹ 331 more rows
# ℹ 2 more variables: sex <fct>, year <int>

penguins |> drop_na() |> group_by(species) |> print(n=2)

# A tibble: 333 × 8
# Groups:   species [3]
  species island    bill_length_mm bill_depth_mm flipper_length_mm body_mass_g
  <fct>   <fct>              <dbl>         <dbl>             <int>       <int>
1 Adelie  Torgersen           39.1          18.7               181        3750
2 Adelie  Torgersen           39.5          17.4               186        3800
# ℹ 331 more rows
# ℹ 2 more variables: sex <fct>, year <int>
…
