STA 9750 – Software Tools for Data AnalysisSTA 9750Michael WeylandtWeek 13
…
broom::augment

augment - apply the model (to training data by default)

# A tibble: 32 × 10
   .rownames     mpg    wt    hp .fitted .resid   .hat .sigma .cooksd .std.resid
   <chr>       <dbl> <dbl> <dbl>   <dbl>  <dbl>  <dbl>  <dbl>   <dbl>      <dbl>
 1 Mazda RX4    21    2.62   110    23.6 -2.57  0.0443   2.59 1.59e-2    -1.01  
 2 Mazda RX4 …  21    2.88   110    22.6 -1.58  0.0405   2.62 5.46e-3    -0.623 
 3 Datsun 710   22.8  2.32    93    25.3 -2.48  0.0602   2.59 2.07e-2    -0.985 
 4 Hornet 4 D…  21.4  3.22   110    21.3  0.135 0.0475   2.64 4.72e-5     0.0533
 5 Hornet Spo…  18.7  3.44   175    18.3  0.373 0.0369   2.64 2.74e-4     0.146 
 6 Valiant      18.1  3.46   105    20.5 -2.37  0.0672   2.60 2.16e-2    -0.948 
 7 Duster 360   14.3  3.57   245    15.6 -1.30  0.117    2.63 1.26e-2    -0.533 
 8 Merc 240D    24.4  3.19    62    22.9  1.51  0.116    2.62 1.68e-2     0.620 
 9 Merc 230     22.8  3.15    95    22.0  0.806 0.0600   2.63 2.19e-3     0.321 
10 Merc 280     19.2  3.44   123    20.0 -0.779 0.0469   2.63 1.55e-3    -0.308 
# ℹ 22 more rows
…
Initial Split

# Stratified sampling to ensure balance
splits      <- initial_split(hotels, 
                             strata = children)

hotel_train <- training(splits)
hotel_test  <- testing(splits)

hotel_train

# A tibble: 37,500 × 23
   hotel   lead_time stays_in_weekend_nig…¹ stays_in_week_nights adults children
   <fct>       <dbl>                  <dbl>                <dbl>  <dbl> <fct>   
 1 City_H…       217                      1                    3      2 none    
 2 City_H…         2                      0                    1      2 none    
 3 Resort…        95                      2                    5      2 none    
 4 Resort…       143                      2                    6      2 none    
 5 City_H…        67                      2                    2      2 none    
 6 City_H…         6                      2                    2      2 children
 7 City_H…       130                      1                    2      2 none    
 8 City_H…        27                      0                    1      1 none    
 9 Resort…        16                      1                    2      2 none    
10 Resort…        46                      0                    2      2 none    
# ℹ 37,490 more rows
# ℹ abbreviated name: ¹​stays_in_weekend_nights
# ℹ 17 more variables: meal <fct>, country <fct>, market_segment <fct>,
#   distribution_channel <fct>, is_repeated_guest <dbl>,
#   previous_cancellations <dbl>, previous_bookings_not_canceled <dbl>,
#   reserved_room_type <fct>, assigned_room_type <fct>, booking_changes <dbl>,
#   deposit_type <fct>, days_in_waiting_list <dbl>, customer_type <fct>, …
…
...
and 47 more lines.

Test Set Assessment

predict(lr_best_fit, hotel_test)

# A tibble: 12,500 × 1
   .pred_class
   <fct>      
 1 children   
 2 children   
 3 none       
 4 none       
 5 none       
 6 none       
 7 none       
 8 none       
 9 none       
10 none       
# ℹ 12,490 more rows

Test Set Assessment

augment(lr_best_fit, hotel_test)

# A tibble: 12,500 × 26
   .pred_class .pred_children .pred_none hotel  lead_time stays_in_weekend_nig…¹
   <fct>                <dbl>      <dbl> <fct>      <dbl>                  <dbl>
 1 children           0.762       0.238  Resor…       136                      1
 2 children           0.920       0.0795 Resor…        47                      0
 3 none               0.441       0.559  City_…        56                      0
 4 none               0.0451      0.955  City_…        80                      0
 5 none               0.00286     0.997  City_…       297                      1
 6 none               0.0570      0.943  City_…       423                      1
 7 none               0.0198      0.980  Resor…       209                      2
 8 none               0.0198      0.980  City_…       134                      0
 9 none               0.0833      0.917  City_…        39                      0
10 none               0.0492      0.951  City_…         5                      2
# ℹ 12,490 more rows
# ℹ abbreviated name: ¹​stays_in_weekend_nights
# ℹ 20 more variables: stays_in_week_nights <dbl>, adults <dbl>,
#   children <fct>, meal <fct>, country <fct>, market_segment <fct>,
#   distribution_channel <fct>, is_repeated_guest <dbl>,
#   previous_cancellations <dbl>, previous_bookings_not_canceled <dbl>,
#   reserved_room_type <fct>, assigned_room_type <fct>, …
…
