STA 9750 Week 4 Pre Assignment: Single-Table dplyr Verbs – STA 9750
…
tibble for data frame enhancement

ggplot2 for data visualization

This week, we are focusing on functionality from the dplyr package.

You may, from time to time, see reference to tibbles in R documentation. A tibble is a “souped-up” data frame with somewhat better default printing. For almost all purposes-and everywhere in this course- you can substitute tibble with data.frame without issue.

Before we get into dplyr, let’s make sure we have a data frame to play with. Let’s bring back our friends, the Palmer penguins:

library(tidyverse)
library(palmerpenguins)
penguins

# A tibble: 344 × 8
   species island    bill_length_mm bill_depth_mm flipper_length_mm body_mass_g
   <fct>   <fct>              <dbl>         <dbl>             <int>       <int>
 1 Adelie  Torgersen           39.1          18.7               181        3750
 2 Adelie  Torgersen           39.5          17.4               186        3800
 3 Adelie  Torgersen           40.3          18                 195        3250
 4 Adelie  Torgersen           NA            NA                  NA          NA
 5 Adelie  Torgersen           36.7          19.3               193        3450
 6 Adelie  Torgersen           39.3          20.6               190        3650
 7 Adelie  Torgersen           38.9          17.8               181        3625
 8 Adelie  Torgersen           39.2          19.6               195        4675
 9 Adelie  Torgersen           34.1          18.1               193        3475
10 Adelie  Torgersen           42            20.2               190        4250
# ℹ 334 more rows
# ℹ 2 more variables: sex <fct>, year <int>

Subsetting Data Frames

Our first task will be to subset data frames: that is, to select only some rows and columns and to return a smaller data frame than the one we started with.

Subsetting Columns

The main dplyr function for column subsetting is select(). In its simplest form, we provide a set of column names we want to keep and everything else gets dropped.

select(penguins, species, island)

# A tibble: 344 × 2
   species island   
   <fct>   <fct>    
 1 Adelie  Torgersen
 2 Adelie  Torgersen
 3 Adelie  Torgersen
 4 Adelie  Torgersen
 5 Adelie  Torgersen
 6 Adelie  Torgersen
 7 Adelie  Torgersen
 8 Adelie  Torgersen
 9 Adelie  Torgersen
10 Adelie  Torgersen
# ℹ 334 more rows
…
R provides an operator |> which “rewrites” code, so

select(penguins, species, island)

and

penguins |> select(species, island)

are exactly the same thing as far as R is concerned. You may well ask yourself why bother: the second “piped” operator is a bit longer and a bit harder to type. But just hold on - we’ll see this makes for far cleaner code in the long run.

Just like base R, if we include - signs in our select statement, we get everything except a certain column:

penguins |> select(-bill_length_mm, -bill_depth_mm, -flipper_length_mm)

# A tibble: 344 × 5
   species island    body_mass_g sex     year
   <fct>   <fct>           <int> <fct>  <int>
 1 Adelie  Torgersen        3750 male    2007
 2 Adelie  Torgersen        3800 female  2007
 3 Adelie  Torgersen        3250 female  2007
 4 Adelie  Torgersen          NA <NA>    2007
 5 Adelie  Torgersen        3450 female  2007
 6 Adelie  Torgersen        3650 male    2007
 7 Adelie  Torgersen        3625 female  2007
 8 Adelie  Torgersen        4675 male    2007
 9 Adelie  Torgersen        3475 <NA>    2007
10 Adelie  Torgersen        4250 <NA>    2007
# ℹ 334 more rows

Here, we dropped three columns.

The select operator provides more advanced functionality which is useful for very complex data structures, but we don’t need to dive into that just yet.

Subsetting Rows

Often in data analysis, we want to focus on a subset of the entire population: e.g., we might want to know the fraction of women supporting a certain political candidate or the rate of a rare cancer among patients 65 or older. In this case, we need to select only those rows of our data that match some criterion. This brings us to the filter operator.

filter takes a logical vector and uses it to select rows of a data frame. Most commonly, this logical vector is created by performing some sort of tests on the values in the data frame. For example, if we want to select only the male penguins in our data set, we may write:

penguins |> filter(sex == "male")

# A tibble: 168 × 8
   species island    bill_length_mm bill_depth_mm flipper_length_mm body_mass_g
   <fct>   <fct>              <dbl>         <dbl>             <int>       <int>
 1 Adelie  Torgersen           39.1          18.7               181        3750
 2 Adelie  Torgersen           39.3          20.6               190        3650
 3 Adelie  Torgersen           39.2          19.6               195        4675
 4 Adelie  Torgersen           38.6          21.2               191        3800
 5 Adelie  Torgersen           34.6          21.1               198        4400
 6 Adelie  Torgersen           42.5          20.7               197        4500
 7 Adelie  Torgersen           46            21.5               194        4200
 8 Adelie  Biscoe              37.7          18.7               180        3600
 9 Adelie  Biscoe              38.2          18.1               185        3950
10 Adelie  Biscoe              38.8          17.2               180        3800
# ℹ 158 more rows
# ℹ 2 more variables: sex <fct>, year <int>

Here, note the use of the == operator for testing equality. A very common mistake is to use the single equals (assignment) operator inside of filter. Thankfully, dplyr will alert us with an error if we make this mistake:

penguins |> filter(sex = "male")

Error in `filter()`:
! We detected a named input.
ℹ This usually means that you've used `=` instead of `==`.
ℹ Did you mean `sex == "male"`?

If we supply multiple tests to filter, we get the intersection: that is, we get rows that pass all tests.

penguins |> filter(sex == "male", bill_length_mm > 38)

# A tibble: 156 × 8
   species island    bill_length_mm bill_depth_mm flipper_length_mm body_mass_g
   <fct>   <fct>              <dbl>         <dbl>             <int>       <int>
 1 Adelie  Torgersen           39.1          18.7               181        3750
 2 Adelie  Torgersen           39.3          20.6               190        3650
 3 Adelie  Torgersen           39.2          19.6               195        4675
 4 Adelie  Torgersen           38.6          21.2               191        3800
 5 Adelie  Torgersen           42.5          20.7               197        4500
 6 Adelie  Torgersen           46            21.5               194        4200
 7 Adelie  Biscoe              38.2          18.1               185        3950
 8 Adelie  Biscoe              38.8          17.2               180        3800
 9 Adelie  Biscoe              40.6          18.6               183        3550
10 Adelie  Biscoe              40.5          18.9               180        3950
# ℹ 146 more rows
# ℹ 2 more variables: sex <fct>, year <int>

If we want the union-rows that satisfy any of the tests-we have to use the logical operators we previous applied to vectors:

penguins |> filter( (sex == "male") | (bill_length_mm > 38))

# A tibble: 292 × 8
   species island    bill_length_mm bill_depth_mm flipper_length_mm body_mass_g
   <fct>   <fct>              <dbl>         <dbl>             <int>       <int>
 1 Adelie  Torgersen           39.1          18.7               181        3750
 2 Adelie  Torgersen           39.5          17.4               186        3800
 3 Adelie  Torgersen           40.3          18                 195        3250
 4 Adelie  Torgersen           39.3          20.6               190        3650
 5 Adelie  Torgersen           38.9          17.8               181        3625
 6 Adelie  Torgersen           39.2          19.6               195        4675
 7 Adelie  Torgersen           42            20.2               190        4250
 8 Adelie  Torgersen           41.1          17.6               182        3200
 9 Adelie  Torgersen           38.6          21.2               191        3800
10 Adelie  Torgersen           34.6          21.1               198        4400
# ℹ 282 more rows
# ℹ 2 more variables: sex <fct>, year <int>
…
slice_min() works similarly. slice_head and slice_tail get the first and last rows by sort order - in general, I recommend against using these. A key rule of data analysis is that the row order is not semantically meaningful, but it’s good to keep them in the back of your mind just in case. slice_sample can be used to select random subsets of data.

Another important subseting function is drop_na which will drop any rows with missing (NA) data.2 This is a good and useful tool, but before you apply it, always ask yourself “why is this data missing?” Understanding the abscence of data is often just as important as understanding the non-missing data. For example, is a student’s SAT score missing on a college application because they i) forgot to list it; ii) never took the SAT; or iii) took the test but chose to omit their score because they did poorly? Proper handling of missing data is often very problem-specific and very hard.

Manipulating and Creating Columns

A key task in data analysis is transforming data. As discussed in class, one of the guiding themes of R programming is data integrity and an important way R ensures this is by applying commands to the entire vector. In the data frame context, we apply commands to an entire column. The mutate function is dplyr’s main interface for column creation and manipulation.

In general, each argument to mutate takes a name = value pair: the name is the name of a column to be created from value. value can be an arbitrary function of other columns. If name corresponds to an existing column, that column is silently overwritten.

For example, if we want to convert penguin bill lengths from millimeters to inches, we might operator:

penguins |> mutate(bill_length_in = bill_length_mm / 25.4)

# A tibble: 344 × 9
   species island    bill_length_mm bill_depth_mm flipper_length_mm body_mass_g
   <fct>   <fct>              <dbl>         <dbl>             <int>       <int>
 1 Adelie  Torgersen           39.1          18.7               181        3750
 2 Adelie  Torgersen           39.5          17.4               186        3800
 3 Adelie  Torgersen           40.3          18                 195        3250
 4 Adelie  Torgersen           NA            NA                  NA          NA
 5 Adelie  Torgersen           36.7          19.3               193        3450
 6 Adelie  Torgersen           39.3          20.6               190        3650
 7 Adelie  Torgersen           38.9          17.8               181        3625
 8 Adelie  Torgersen           39.2          19.6               195        4675
 9 Adelie  Torgersen           34.1          18.1               193        3475
10 Adelie  Torgersen           42            20.2               190        4250
# ℹ 334 more rows
# ℹ 3 more variables: sex <fct>, year <int>, bill_length_in <dbl>

Here, note that the bill_length_mm column is retained - and all columns are kept! mutate only creates new columns; it won’t secretly drop them.

A particularly common operator is changing the name of a column without changing its values. You can use mutate and select(-) for this, but rename provides essentially the same interface and its semantically clearer:

penguins |> rename(mass = body_mass_g)

# A tibble: 344 × 8
   species island    bill_length_mm bill_depth_mm flipper_length_mm  mass sex   
   <fct>   <fct>              <dbl>         <dbl>             <int> <int> <fct> 
 1 Adelie  Torgersen           39.1          18.7               181  3750 male  
 2 Adelie  Torgersen           39.5          17.4               186  3800 female
 3 Adelie  Torgersen           40.3          18                 195  3250 female
 4 Adelie  Torgersen           NA            NA                  NA    NA <NA>  
 5 Adelie  Torgersen           36.7          19.3               193  3450 female
 6 Adelie  Torgersen           39.3          20.6               190  3650 male  
 7 Adelie  Torgersen           38.9          17.8               181  3625 female
 8 Adelie  Torgersen           39.2          19.6               195  4675 male  
 9 Adelie  Torgersen           34.1          18.1               193  3475 <NA>  
10 Adelie  Torgersen           42            20.2               190  4250 <NA>  
# ℹ 334 more rows
# ℹ 1 more variable: year <int>
…
# A tibble: 3 × 2
  species   body_mass_avg
  <fct>             <dbl>
1 Adelie            3701.
2 Chinstrap         3733.
3 Gentoo            5076.

We added the group_by operator here. Note that, on its own, group_by doesn’t really do anything:

penguins |> 
    group_by(species)

# A tibble: 344 × 8
# Groups:   species [3]
   species island    bill_length_mm bill_depth_mm flipper_length_mm body_mass_g
   <fct>   <fct>              <dbl>         <dbl>             <int>       <int>
 1 Adelie  Torgersen           39.1          18.7               181        3750
 2 Adelie  Torgersen           39.5          17.4               186        3800
 3 Adelie  Torgersen           40.3          18                 195        3250
 4 Adelie  Torgersen           NA            NA                  NA          NA
 5 Adelie  Torgersen           36.7          19.3               193        3450
 6 Adelie  Torgersen           39.3          20.6               190        3650
 7 Adelie  Torgersen           38.9          17.8               181        3625
 8 Adelie  Torgersen           39.2          19.6               195        4675
 9 Adelie  Torgersen           34.1          18.1               193        3475
10 Adelie  Torgersen           42            20.2               190        4250
# ℹ 334 more rows
# ℹ 2 more variables: sex <fct>, year <int>
…
group_by metadata is also useful when summary statistics are computed implicitly by other functions. E.g., if we want to get all penguins that are above average mass for their species, we might try the following:

penguins |> 
    group_by(species) |>
    filter(body_mass_g >= mean(body_mass_g, na.rm=TRUE)) |>
    ungroup()

# A tibble: 159 × 8
   species island    bill_length_mm bill_depth_mm flipper_length_mm body_mass_g
   <fct>   <fct>              <dbl>         <dbl>             <int>       <int>
 1 Adelie  Torgersen           39.1          18.7               181        3750
 2 Adelie  Torgersen           39.5          17.4               186        3800
 3 Adelie  Torgersen           39.2          19.6               195        4675
 4 Adelie  Torgersen           42            20.2               190        4250
 5 Adelie  Torgersen           38.6          21.2               191        3800
 6 Adelie  Torgersen           34.6          21.1               198        4400
 7 Adelie  Torgersen           42.5          20.7               197        4500
 8 Adelie  Torgersen           46            21.5               194        4200
 9 Adelie  Biscoe              35.9          19.2               189        3800
10 Adelie  Biscoe              38.2          18.1               185        3950
# ℹ 149 more rows
# ℹ 2 more variables: sex <fct>, year <int>
…
