STA 9750 Week 9 Pre Assignment: Flat-File Data Ingest – STA 9750
…
Warning: One or more parsing issues, call `problems()` on your data frame for details,
e.g.:
  dat <- vroom(...)
  problems(dat)

Rows: 38 Columns: 2
── Column specification ────────────────────────────────────────────────────────
Delimiter: ","
chr (2): Name, MICHAEL WEYLANDT

ℹ Use `spec()` to retrieve the full column specification for this data.
ℹ Specify the column types or set `show_col_types = FALSE` to quiet this message.

# A tibble: 38 × 2
   Name           `MICHAEL WEYLANDT`                        
   <chr>          <chr>                                     
 1 Address        ADDRESS REDACTED                          
 2 Account Number ACCOUNT NUMBER REDACTED                   
 3 Service        Service 1                                 
 4 TYPE           DATE,START TIME,END TIME,USAGE (kWh),NOTES
 5 Electric usage 2024-10-24,00:00,00:14,0.08,              
 6 Electric usage 2024-10-24,00:15,00:29,0.08,              
 7 Electric usage 2024-10-24,00:30,00:44,0.08,              
 8 Electric usage 2024-10-24,00:45,00:59,0.08,              
 9 Electric usage 2024-10-24,01:00,01:14,0.09,              
10 Electric usage 2024-10-24,01:15,01:29,0.08,              
# ℹ 28 more rows
…
Rows: 38 Columns: 2
── Column specification ────────────────────────────────────────────────────────
Delimiter: ","
chr (2): Name, MICHAEL WEYLANDT

ℹ Use `spec()` to retrieve the full column specification for this data.
ℹ Specify the column types or set `show_col_types = FALSE` to quiet this message.

problems(con_ed)

# A tibble: 35 × 5
     row   col expected  actual    file                                         
   <int> <int> <chr>     <chr>     <chr>                                        
 1     5     6 2 columns 6 columns /Users/weylandt/STA9750/mw_coned_20241024.csv
 2     6     6 2 columns 6 columns /Users/weylandt/STA9750/mw_coned_20241024.csv
 3     7     6 2 columns 6 columns /Users/weylandt/STA9750/mw_coned_20241024.csv
 4     8     6 2 columns 6 columns /Users/weylandt/STA9750/mw_coned_20241024.csv
 5     9     6 2 columns 6 columns /Users/weylandt/STA9750/mw_coned_20241024.csv
 6    10     6 2 columns 6 columns /Users/weylandt/STA9750/mw_coned_20241024.csv
 7    11     6 2 columns 6 columns /Users/weylandt/STA9750/mw_coned_20241024.csv
 8    12     6 2 columns 6 columns /Users/weylandt/STA9750/mw_coned_20241024.csv
 9    13     6 2 columns 6 columns /Users/weylandt/STA9750/mw_coned_20241024.csv
10    14     6 2 columns 6 columns /Users/weylandt/STA9750/mw_coned_20241024.csv
# ℹ 25 more rows
…
