STA 9750 Mini-Project #02: Making Backyards Affordable for All – STA 9750
…
R will bring up a list of all census tables by their ID and brief description. You can look through this list to find variables that might work for this extension. Commands like:

library(tidyverse)
x <- coll("THING TO LOOK FOR", ignore_case = TRUE) 
tidycensus::load_variables(2024, "acs1") |> 
  filter(str_detect(label, x) | str_detect(concept, x))

will look for variables with a certain term in their description; e.g.

library(tidyverse)
x <- coll("kitchen", ignore_case = TRUE) 
tidycensus::load_variables(2024, "acs1") |> 
  filter(str_detect(label, x) | str_detect(concept, x))

# A tibble: 23 × 3
   name       label                                                      concept
   <chr>      <chr>                                                      <chr>  
 1 B25051_001 Estimate!!Total:                                           Kitche…
 2 B25051_002 Estimate!!Total:!!Complete kitchen facilities              Kitche…
 3 B25051_003 Estimate!!Total:!!Lacking complete kitchen facilities      Kitche…
 4 B25052_001 Estimate!!Total:                                           Kitche…
 5 B25052_002 Estimate!!Total:!!Complete kitchen facilities              Kitche…
 6 B25052_003 Estimate!!Total:!!Lacking complete kitchen facilities      Kitche…
 7 B25053_001 Estimate!!Total:                                           Tenure…
 8 B25053_002 Estimate!!Total:!!Owner occupied:                          Tenure…
 9 B25053_003 Estimate!!Total:!!Owner occupied:!!Complete kitchen facil… Tenure…
10 B25053_004 Estimate!!Total:!!Owner occupied:!!Lacking complete kitch… Tenure…
# ℹ 13 more rows
…
