STA 9750 Mini-Project #04: Just the Fact(-Check)s, Ma’am! – STA 9750
…
Here, we perform the test by specifying the response (quantity of interest) on the left hand side of the ~ and the explanatory variable (that which might meaningfully predict a differerence in groups) on the right hand side of the ~. If we swap the order (or don’t provide it), the sign of the estimated difference may differ, but the actual \(p\)-value won’t change for a two-sided test (as done here).

We can extend this analysis to perform it separately for each of three years using a bit of nested data trickery. The mechanics of this are more advanced, but you should be able to extend this to your own analysis by just changing variable names:

penguins_ok |>
filter(species != "Chinstrap") |>
group_by(year) |>
nest() |>
mutate(p_value_adelie_gentoo = map(data, \(d) t_test(d, 
                                                     body_mass ~ species,
                                                     order=c("Adelie", "Gentoo")))) |>
unnest(everything())

# A tibble: 265 × 15
# Groups:   year [3]
    year species island  bill_len bill_dep flipper_len body_mass sex   statistic
   <int> <chr>   <fct>      <dbl>    <dbl>       <int>     <int> <fct>     <dbl>
 1  2007 Adelie  Torger…     39.1     18.7         181      3750 male      -11.6
 2  2007 Adelie  Torger…     39.5     17.4         186      3800 fema…     -11.6
 3  2007 Adelie  Torger…     40.3     18           195      3250 fema…     -11.6
 4  2007 Adelie  Torger…     36.7     19.3         193      3450 fema…     -11.6
 5  2007 Adelie  Torger…     39.3     20.6         190      3650 male      -11.6
 6  2007 Adelie  Torger…     38.9     17.8         181      3625 fema…     -11.6
 7  2007 Adelie  Torger…     39.2     19.6         195      4675 male      -11.6
 8  2007 Adelie  Torger…     41.1     17.6         182      3200 fema…     -11.6
 9  2007 Adelie  Torger…     38.6     21.2         191      3800 male      -11.6
10  2007 Adelie  Torger…     34.6     21.1         198      4400 male      -11.6
# ℹ 255 more rows
# ℹ 6 more variables: t_df <dbl>, p_value <dbl>, alternative <chr>,
#   estimate <dbl>, lower_ci <dbl>, upper_ci <dbl>
…
