STA 9750 Lecture #8 In-Class Activity: More ggplot2 - Chloropleths and Cartograms + Tools for Interactive Data Analysis – STA 9750
…
Key to this approach is a shapefile. A shapefile, conventionally stored with a shp extension, gives precise coordinates outlining spatial regions. By plotting a polygon with those points at its boundaries, we can visualize spatial regions.

The sf package includes a shp file for the counties of North Carolina:

library(tidyverse)
library(sf)
nc <- read_sf(system.file("shape/nc.shp", package="sf"))
nc

Simple feature collection with 100 features and 14 fields
Geometry type: MULTIPOLYGON
Dimension:     XY
Bounding box:  xmin: -84.32385 ymin: 33.88199 xmax: -75.45698 ymax: 36.58965
Geodetic CRS:  NAD27
# A tibble: 100 × 15
    AREA PERIMETER CNTY_ CNTY_ID NAME  FIPS  FIPSNO CRESS_ID BIR74 SID74 NWBIR74
   <dbl>     <dbl> <dbl>   <dbl> <chr> <chr>  <dbl>    <int> <dbl> <dbl>   <dbl>
 1 0.114      1.44  1825    1825 Ashe  37009  37009        5  1091     1      10
 2 0.061      1.23  1827    1827 Alle… 37005  37005        3   487     0      10
 3 0.143      1.63  1828    1828 Surry 37171  37171       86  3188     5     208
 4 0.07       2.97  1831    1831 Curr… 37053  37053       27   508     1     123
 5 0.153      2.21  1832    1832 Nort… 37131  37131       66  1421     9    1066
 6 0.097      1.67  1833    1833 Hert… 37091  37091       46  1452     7     954
 7 0.062      1.55  1834    1834 Camd… 37029  37029       15   286     0     115
 8 0.091      1.28  1835    1835 Gates 37073  37073       37   420     0     254
 9 0.118      1.42  1836    1836 Warr… 37185  37185       93   968     4     748
10 0.124      1.43  1837    1837 Stok… 37169  37169       85  1612     1     160
# ℹ 90 more rows
# ℹ 4 more variables: BIR79 <dbl>, SID79 <dbl>, NWBIR79 <dbl>,
#   geometry <MULTIPOLYGON [°]>

We represent this data in “tidy” format, with each row being a county. The “magic” is in the geometry column:

library(dplyr)
nc |> select(NAME, AREA, PERIMETER, geometry)

Simple feature collection with 100 features and 3 fields
Geometry type: MULTIPOLYGON
Dimension:     XY
Bounding box:  xmin: -84.32385 ymin: 33.88199 xmax: -75.45698 ymax: 36.58965
Geodetic CRS:  NAD27
# A tibble: 100 × 4
   NAME         AREA PERIMETER                                          geometry
   <chr>       <dbl>     <dbl>                                <MULTIPOLYGON [°]>
 1 Ashe        0.114      1.44 (((-81.47276 36.23436, -81.54084 36.27251, -81.5…
 2 Alleghany   0.061      1.23 (((-81.23989 36.36536, -81.24069 36.37942, -81.2…
 3 Surry       0.143      1.63 (((-80.45634 36.24256, -80.47639 36.25473, -80.5…
 4 Currituck   0.07       2.97 (((-76.00897 36.3196, -76.01735 36.33773, -76.03…
 5 Northampton 0.153      2.21 (((-77.21767 36.24098, -77.23461 36.2146, -77.29…
 6 Hertford    0.097      1.67 (((-76.74506 36.23392, -76.98069 36.23024, -76.9…
 7 Camden      0.062      1.55 (((-76.00897 36.3196, -75.95718 36.19377, -75.98…
 8 Gates       0.091      1.28 (((-76.56251 36.34057, -76.60424 36.31498, -76.6…
 9 Warren      0.118      1.42 (((-78.30876 36.26004, -78.28293 36.29188, -78.3…
10 Stokes      0.124      1.43 (((-80.02567 36.25023, -80.45301 36.25709, -80.4…
# ℹ 90 more rows
…
