STA 9750 Lecture #7 In-Class Activity: Data Import in R – STA 9750
…
Rows: 2754 Columns: 5
── Column specification ────────────────────────────────────────────────────────
Delimiter: ","
chr (2): variable, field
dbl (3): Y2000, Y2010, district

ℹ Use `spec()` to retrieve the full column specification for this data.
ℹ Specify the column types or set `show_col_types = FALSE` to quiet this message.

# A tibble: 2,754 × 5
   variable   field                                  Y2000 Y2010 district
   <chr>      <chr>                                  <dbl> <dbl>    <dbl>
 1 Population White Nonhispanic                      55293 76242        1
 2 Population Black Nonhispanic                       6596  6775        1
 3 Population Asian and Pacific Islander Nonhispanic 62768 60776        1
 4 Population Other Nonhispanic                        879   641        1
 5 Population Two or More Races Nonhispanic           3109  3651        1
 6 Population Hispanic Origin                        20786 20881        1
 7 Population Female                                 73784 86152        1
 8 Population Male                                   75647 82814        1
 9 Population Under 5 years                           6501  8338        1
10 Population 5 to 9 years                            6197  6120        1
# ℹ 2,744 more rows
…
NoteSolution

library(httr2)
library(tidyverse)
request("https://cranlogs.r-pkg.org") |>
    req_url_path_append("top") |>
    req_url_path_append("last-day") |>
    req_url_path_append(100) |>
    req_perform() |>
    resp_body_json() |>
    pluck("downloads") |>
    map(as_tibble) |>
    list_rbind()

# A tibble: 100 × 2
   package   downloads
   <chr>     <chr>    
 1 rlang     97741    
 2 ggplot2   90359    
 3 cli       82327    
 4 vctrs     81454    
 5 lifecycle 77239    
 6 dplyr     77216    
 7 Rcpp      73273    
 8 glue      70192    
 9 curl      68495    
10 magrittr  66048    
# ℹ 90 more rows
…
library(httr2)
library(tidyverse)
request("https://cranlogs.r-pkg.org") |>
    req_url_path_append("downloads") |>
    req_url_path_append("daily") |>
    req_url_path_append("last-month") |>
    req_url_path_append("ggplot2") |>
    req_perform() |>
    resp_body_json() |>
    pluck(1) |>
    pluck("downloads") |>
    map(as_tibble) |>
    list_rbind()

# A tibble: 30 × 2
   day        downloads
   <chr>          <int>
 1 2026-03-25     84324
 2 2026-03-26     82543
 3 2026-03-27     63567
 4 2026-03-28     41680
 5 2026-03-29     40636
 6 2026-03-30     74240
 7 2026-03-31     79241
 8 2026-04-01     76140
 9 2026-04-02     73048
10 2026-04-03     56827
# ℹ 20 more rows
…
gg_downloads <- get_downloads("ggplot2")
print(gg_downloads)

# A tibble: 30 × 3
   day        downloads package
   <date>         <int> <chr>  
 1 2026-03-25     84324 ggplot2
 2 2026-03-26     82543 ggplot2
 3 2026-03-27     63567 ggplot2
 4 2026-03-28     41680 ggplot2
 5 2026-03-29     40636 ggplot2
 6 2026-03-30     74240 ggplot2
 7 2026-03-31     79241 ggplot2
 8 2026-04-01     76140 ggplot2
 9 2026-04-02     73048 ggplot2
10 2026-04-03     56827 ggplot2
# ℹ 20 more rows
…
