STA 9750 Lecture #10 In-Class Activity: Strings and String-y Things – STA 9750
…
Use a pivot_* function to create a new wide table with each ingredient as a column.

Hint: Which pivot operation do you want to use here? How should the empty cells be treated? Look at the values_fill argument.

Note that there are some duplicate rows when the same ingredient is used twice in a single cocktail. You might want to simply add up the relevant numbers before proceeding.

TipSolution

RECIPES_LONG |>
    group_by(title, ingredient) |>
    summarize(number = sum((number)),
              .groups="drop") |>
    pivot_wider(names_from = ingredient, values_from=number, values_fill=0)

# A tibble: 161 × 215
   title             `brandy (oz)` `es Peychaud's (dash)` maraschino liqueur (…¹
   <chr>                     <dbl>                  <dbl>                  <dbl>
 1 1910                       0.75                      2                    0.5
 2 A wish for Grace           0                         0                    0  
 3 A-go flip                  0                         0                    0  
 4 Abricot vieux              0                         0                    0  
 5 Accoutrement               0                         2                    0  
 6 Across 110th str…          0                         0                    0  
 7 Air mail                   0                         0                    0  
 8 Aku aku                    0                         0                    0  
 9 Alexander                  1                         0                    0  
10 Algonquin                  0                         0                    0  
# ℹ 151 more rows
# ℹ abbreviated name: ¹​`maraschino liqueur (oz)`
# ℹ 211 more variables: `mezcal (oz)` <dbl>, `sweet vermouth (oz)` <dbl>,
#   `Angostura (dash)` <dbl>, `Madeira (oz)` <dbl>, `lemon juice (oz)` <dbl>,
#   `orange liqueur (oz)` <dbl>, `rum, Smith & Cross (oz)` <dbl>,
#   `simple syrup (oz)` <dbl>, `Angostura (oz)` <dbl>, `egg (NA)` <dbl>,
#   `rum (oz)` <dbl>, `sherry, pedro ximinez (oz)` <dbl>, …
…
    mutate(Ingredient = case_when(
        is.na(Unit) ~ Ingredient, # Handle unit-less ingredients
        TRUE ~ paste0(Ingredient, " (", Unit, ")"))) |>
    # Spanish Coffee lists orange liqueur twice, so let's 
    # add up repeated ingredients before pivoting.
    # (I think this is the only one)
    group_by(Cocktail, Ingredient) |>
    summarize(Amount = sum(Amount), .groups="drop") |>
    pivot_wider(id_cols = Cocktail, 
                names_from = Ingredient, 
                values_from = Amount, 
                values_fill = 0) |>
    select("Cocktail", sort(tidyselect::peek_vars()))

# A tibble: 161 × 214
   Cocktail          `1/2 Lemon, Muddled` `1/2 Swedish Punsch` `3-4 Sage Leaves`
   <chr>                            <dbl>                <dbl>             <dbl>
 1 1910                                 0                    0                 0
 2 A wish for Grace                     0                    0                 0
 3 A-go flip                            0                    0                 0
 4 Abricot vieux                        0                    0                 0
 5 Accoutrement                         0                    0                 0
 6 Across 110th str…                    0                    0                 0
 7 Air mail                             0                    0                 0
 8 Aku aku                              0                    0                 0
 9 Alexander                            0                    0                 0
10 Algonquin                            0                    0                 0
# ℹ 151 more rows
# ℹ 210 more variables: `A Cherry` <dbl>, `Absinthe (dash)` <dbl>,
#   `Absinthe (oz)` <dbl>, `Absinthe Rinse` <dbl>,
#   `Absinthe, Pernod (oz)` <dbl>, `Allspice Liqueur (oz)` <dbl>,
#   `Ancho Reyes (oz)` <dbl>, Angostura <dbl>, `Angostura (dash)` <dbl>,
#   `Angostura (dashes)` <dbl>, `Angostura (oz)` <dbl>, `Aperol (oz)` <dbl>,
#   `Apple Brandy (oz)` <dbl>, `Apricot Liqueur (oz)` <dbl>, …
…
