STA 9750 Week 9 In-Class Activity: Data Import – STA 9750
…
This is a minor change to the request only, but you will need to read the documentation to see where and how the request needs to be changed.

Solution

request("https://cranlogs.r-pkg.org") |>
    req_url_path_append("top") |>
    req_url_path_append("last-day") |>
    req_url_path_append(100) |>
    req_perform() |>
    resp_body_json() |>
    pluck("downloads") |>
    map(as_tibble) |>
    list_rbind()

# A tibble: 100 × 2
   package   downloads
   <chr>     <chr>    
 1 rlang     59717    
 2 ggplot2   57245    
 3 cli       56445    
 4 dplyr     54429    
 5 tibble    51157    
 6 tidyverse 50955    
 7 utf8      48166    
 8 glue      47633    
 9 lifecycle 47534    
10 ragg      46870    
# ℹ 90 more rows
…
gg_downloads <- get_downloads("ggplot2")
print(gg_downloads)

# A tibble: 30 × 3
   day        downloads package
   <date>         <int> <chr>  
 1 2025-05-12     74185 ggplot2
 2 2025-05-13     80265 ggplot2
 3 2025-05-14     67136 ggplot2
 4 2025-05-15     66430 ggplot2
 5 2025-05-16     57986 ggplot2
 6 2025-05-17     33745 ggplot2
 7 2025-05-18     35424 ggplot2
 8 2025-05-19     71123 ggplot2
 9 2025-05-20     71261 ggplot2
10 2025-05-21     65592 ggplot2
# ℹ 20 more rows
…
